[gd_scene load_steps=6 format=2]

[ext_resource path="res://assets/ui/highlight0.png" type="Texture" id=1]
[ext_resource path="res://assets/ui/highlight1.png" type="Texture" id=2]
[ext_resource path="res://assets/ui/highlight_big1.png" type="Texture" id=3]
[ext_resource path="res://assets/ui/highlight_big0.png" type="Texture" id=4]

[sub_resource type="SpriteFrames" id=1]
animations = [ {
"frames": [ ExtResource( 1 ), ExtResource( 2 ) ],
"loop": true,
"name": "default",
"speed": 1.0
}, {
"frames": [ ExtResource( 4 ), ExtResource( 3 ) ],
"loop": true,
"name": "wide",
"speed": 1.0
} ]

[node name="Selection" type="AnimatedSprite"]
visible = false
frames = SubResource( 1 )
frame = 1
playing = true
