[gd_scene load_steps=8 format=2]

[ext_resource path="res://assets/appliances/freezertop.png" type="Texture" id=1]
[ext_resource path="res://assets/appliances/freezerfront.png" type="Texture" id=2]
[ext_resource path="res://components/dispenser/dispenser.gd" type="Script" id=3]
[ext_resource path="res://assets/sound/effects/fridge.wav" type="AudioStream" id=4]
[ext_resource path="res://components/selection/selection.tscn" type="PackedScene" id=5]

[sub_resource type="RectangleShape2D" id=1]
extents = Vector2( 24, 24 )

[sub_resource type="RectangleShape2D" id=2]
extents = Vector2( 24, 24 )

[node name="Freezer_down" type="StaticBody2D"]
collision_mask = 2
script = ExtResource( 3 )

[node name="Working Area" type="Sprite" parent="."]
position = Vector2( 24, 24 )
texture = ExtResource( 1 )

[node name="Torso" type="Sprite" parent="."]
position = Vector2( 24, 24 )
texture = ExtResource( 2 )
offset = Vector2( 0, 48 )

[node name="ActivationArea" type="Area2D" parent="."]
position = Vector2( 0, 48 )
collision_mask = 2

[node name="CollisionShape2D" type="CollisionShape2D" parent="ActivationArea"]
position = Vector2( 24, 24 )
shape = SubResource( 1 )

[node name="CollisionShape2D" type="CollisionShape2D" parent="."]
position = Vector2( 24, 24 )
shape = SubResource( 2 )

[node name="Sound" type="AudioStreamPlayer2D" parent="."]
stream = ExtResource( 4 )

[node name="Selection" parent="." instance=ExtResource( 5 )]
position = Vector2( 24, 24 )
